{
	"id": "5e8740cd-c994-497a-a9bb-f98e2b740aec",
	"name": "Trello",
	"values": [
		{
			"key": "url",
			"value": "https://api.trello.com",
			"type": "default",
			"enabled": true
		},
		{
			"key": "trelloKey",
			"value": "Your Key",
			"type": "default",
			"enabled": true
		},
		{
			"key": "trelloToken",
			"value": "Your Token",
			"type": "default",
			"enabled": true
		}
	],
	"_postman_variable_scope": "environment",
	"_postman_exported_at": "2023-01-30T16:44:57.367Z",
	"_postman_exported_using": "Postman/10.9.1"
}